[gd_scene load_steps=3 format=2]

[ext_resource path="res://Logic/EverGreen/PMStateAndLoader.gd" type="Script" id=1]

[sub_resource type="GDScript" id=1]
script/source = "extends Resource

var state_ref: Node
var minus_load_percentage = 0.0

func go_to_previous_state():
    return \"#GoBack#\"

func on_ready():
    if PM.get_tree().root.get_node(\"Container/UI\").get_children().size() > 0:
        var UI = PM.get_tree().root.get_node(\"Container/UI\").get_child(0)
        if UI != null:
            UI.visible = true
    var stream0 = PM.get_tree().root.get_node_or_null(\"Audio/Stream0\")
    if stream0 != null:
        stream0.play()
    return state_ref.STATE_ID

func on_enter(_previous_state):
    if PM.get_tree().root.get_node(\"Container/UI\").get_children().size() > 0:
        var UI = PM.get_tree().root.get_node(\"Container/UI\").get_child(0)
        if UI != null:
            UI.visible = false
    var stream0 = PM.get_tree().root.get_node_or_null(\"Audio/Stream0\")
    if stream0 != null:
        stream0.stop()
    return state_ref.STATE_ID

func on_exit():
    return
   
func on_state_trigger(new_value):
    # Note: return go_to_previous_state()
    # Go to a transitionable State:  return state_ref.transitionable_states[0]
    return new_value
    
func on_cleanup():
    pass
    
func on_stage_loaded(_completed_stages, _total_stages, _file_name):
    pass

func on_resource_loaded(_completed_stages, _total_stages, _file_name, _resource):
    pass

func on_loading_complete():
    return state_ref.STATE_ID

func on_process_event(_delta):
    return state_ref.STATE_ID
    
func on_physics_process_event(_delta):
    return state_ref.STATE_ID

func on_input_event(_event):
    return state_ref.STATE_ID

func on_unhandled_input_event(_event):
    return state_ref.STATE_ID
"

[node name="PMStateAndLoader" type="Node"]
script = ExtResource( 1 )
STATE_ID = "GutAllUnit"
transitionable_states = [ "UserTypeChoice" ]
my_screen_file = "res://tests/TestRunner.tscn"
custom_event_overrides = SubResource( 1 )
