[gd_resource type="Resource" load_steps=2 format=2]

[ext_resource path="res://Logic/EverGreen/Networking/Client_Module.gd" type="Script" id=1]

[resource]
resource_name = "Client_Module"
script = ExtResource( 1 )
