[gd_scene load_steps=2 format=2]

[ext_resource path="res://assets/themes/default.tres" type="Theme" id=1]

[node name="PreGameStart" type="ReferenceRect"]
margin_left = 2160.0
margin_top = 960.0
margin_right = 2700.0
margin_bottom = 1920.0
rect_min_size = Vector2( 540, 960 )
theme = ExtResource( 1 )
__meta__ = {
"_edit_use_anchors_": false,
"_editor_description_": "4,1"
}
