; Engine configuration file.
; It's best edited using the editor UI and not directly,
; since the parameters that go here are not all obvious.
;
; Format:
;   [section] ; section goes between []
;   param=value ; assign values to parameters

config_version=4

_global_script_classes=[ {
"base": "Resource",
"class": "Chance",
"language": "GDScript",
"path": "res://Logic/EverGreen/ECS/Systems/SuperSystems/RandomGenerator/Chance.gd"
} ]
_global_script_class_icons={
"Chance": ""
}

[WAT]

Test_Directory="res://tests"
Results_Directory="res://tests"
Test_Metadata_Directory="res://tests"
Tags=PoolStringArray(  )
Window_Size=Vector2( 1280, 720 )
Minimize_Window_When_Running_Tests=false
Port=6008
Default_Launch=0
Run_All_Tests=Object(InputEventKey,"resource_local_to_scene":false,"resource_name":"","device":0,"alt":false,"shift":false,"control":false,"meta":false,"command":false,"pressed":false,"scancode":0,"physical_scancode":0,"unicode":0,"echo":false,"script":null)

Auto_Refresh_Tests=false
Display=8

[application]

config/name="FreecoiL Gen2"
config/description="Bringing the game to the world! For the Recoil laser tag system."
run/main_scene="res://scenes/Global/Container/TheContainer.tscn"
run/flush_stdout_on_print.debug=false
boot_splash/image="res://assets/images/boot_splash.png"
boot_splash/bg_color=Color( 0, 0, 0, 1 )
config/icon="res://assets/images/logos/Freecoil_app_icon.png"
config/windows_native_icon="res://assets/images/logos/Freecoil.ico"

[audio]

enable_audio_input=true

[autoload]

PM="*res://Logic/EverGreen/ProgramManager.tscn"

[debug]

settings/fps/force_fps=240
gdscript/completion/autocomplete_setters_and_getters=true
gdscript/warnings/unsafe_cast=true
gdscript/warnings/unsafe_call_argument=true

[display]

window/size/width=540
window/size/height=960
window/size/resizable=false
window/vsync/use_vsync=false
window/handheld/orientation="portrait"
window/stretch/mode="viewport"
window/stretch/aspect="keep_width"

[editor_plugins]

enabled=PoolStringArray( "res://addons/Todo_Manager/plugin.cfg", "res://addons/gut/plugin.cfg", "res://addons/regular_polygon2d_node/plugin.cfg" )

[logging]

file_logging/enable_file_logging=true

[memory]

limits/message_queue/max_size_kb=8192

[network]

limits/debugger_stdout/max_chars_per_second=20480
limits/debugger_stdout/max_messages_per_frame=100

[rendering]

quality/driver/driver_name="GLES2"
vram_compression/import_etc=true
vram_compression/import_etc2=false
environment/default_clear_color=Color( 0, 0, 0, 1 )
quality/dynamic_fonts/use_oversampling=false
