[gd_resource type="DynamicFont" load_steps=2 format=2]

[ext_resource path="res://assets/fonts/Freecoil-Regular.otf" type="DynamicFontData" id=1]

[resource]
size = 32
extra_spacing_top = 4
font_data = ExtResource( 1 )
